TrigSignatureMoniMT                                INFO HLT_xe30_L1XE10               50        50        30        30        
TrigSignatureMoniMT                                INFO HLT_xe30_L1XE10 decisions                         30        
TrigSignatureMoniMT                                INFO HLT_xe65_L1XE50               50        50        7         7         
TrigSignatureMoniMT                                INFO HLT_xe65_L1XE50 decisions                         7         
